module gitlab.com/id-access-manager/protos

go 1.21.6

require (
	google.golang.org/grpc v1.62.1
	google.golang.org/protobuf v1.33.0
)

require ( // indirect
	github.com/golang/protobuf v1.5.4 // indirect
	golang.org/x/net v0.22.0 // indirect
	golang.org/x/sys v0.18.0 // indirect
	golang.org/x/text v0.14.0 // indirect
	google.golang.org/genproto/googleapis/rpc v0.0.0-20240318140521-94a12d6c2237 // indirect
)
